('C:\\Users\\jrnm_\\test\\forthon_01\\testing_n_learning\\juan_narvaez\\python\\ANAELU_02\\dist\\ANAELU_run.exe',
 True,
 False,
 False,
 'anaelu.ico',
 None,
 False,
 False,
 '<?xml version="1.0" encoding="UTF-8" standalone="yes"?><assembly xmlns="urn:schemas-microsoft-com:asm.v1" manifestVersion="1.0"><assemblyIdentity type="win32" name="ANAELU_run" processorArchitecture="amd64" version="1.0.0.0"/><dependency><dependentAssembly><assemblyIdentity type="win32" name="Microsoft.Windows.Common-Controls" language="*" processorArchitecture="*" version="6.0.0.0" publicKeyToken="6595b64144ccf1df"/><compatibility xmlns="urn:schemas-microsoft-com:compatibility.v1"/></dependentAssembly></dependency><compatibility xmlns="urn:schemas-microsoft-com:compatibility.v1"><application><supportedOS Id="{e2011457-1546-43c5-a5fe-008deee3d3f0}"/><supportedOS Id="{35138b9a-5d96-4fbd-8e2d-a2440225f93a}"/><supportedOS Id="{4a2f28e3-53b9-4441-ba9c-d69d4a4a6e38}"/><supportedOS Id="{1f676c76-80e1-4239-95bb-83d0f6d0da78}"/><supportedOS Id="{8e0f7a12-bfb3-4fe8-b9a5-48fd50a15a9a}"/></application></compatibility></assembly>',
 True,
 'ANAELU_run.pkg',
 [('PYZ-00.pyz',
   'C:\\Users\\jrnm_\\test\\forthon_01\\testing_n_learning\\juan_narvaez\\python\\ANAELU_02\\build\\ANAELU_run\\PYZ-00.pyz',
   'PYZ'),
  ('struct',
   'c:\\users\\jrnm_\\appdata\\local\\programs\\python\\python38\\lib\\struct.pyo',
   'PYMODULE'),
  ('pyimod01_os_path',
   'c:\\users\\jrnm_\\appdata\\local\\programs\\python\\python38\\lib\\site-packages\\PyInstaller\\loader\\pyimod01_os_path.pyc',
   'PYMODULE'),
  ('pyimod02_archive',
   'c:\\users\\jrnm_\\appdata\\local\\programs\\python\\python38\\lib\\site-packages\\PyInstaller\\loader\\pyimod02_archive.pyc',
   'PYMODULE'),
  ('pyimod03_importers',
   'c:\\users\\jrnm_\\appdata\\local\\programs\\python\\python38\\lib\\site-packages\\PyInstaller\\loader\\pyimod03_importers.pyc',
   'PYMODULE'),
  ('pyiboot01_bootstrap',
   'c:\\users\\jrnm_\\appdata\\local\\programs\\python\\python38\\lib\\site-packages\\PyInstaller\\loader\\pyiboot01_bootstrap.py',
   'PYSOURCE'),
  ('pyi_rth__tkinter',
   'C:\\Users\\jrnm_\\AppData\\Local\\Programs\\Python\\Python38\\Lib\\site-packages\\PyInstaller\\loader\\rthooks\\pyi_rth__tkinter.py',
   'PYSOURCE'),
  ('pyi_rth_multiprocessing',
   'C:\\Users\\jrnm_\\AppData\\Local\\Programs\\Python\\Python38\\Lib\\site-packages\\PyInstaller\\loader\\rthooks\\pyi_rth_multiprocessing.py',
   'PYSOURCE'),
  ('ANAELU_run',
   'C:\\Users\\jrnm_\\test\\forthon_01\\testing_n_learning\\juan_narvaez\\python\\ANAELU_02\\ANAELU_run.py',
   'PYSOURCE'),
  ('VCRUNTIME140.dll',
   'c:\\users\\jrnm_\\appdata\\local\\programs\\python\\python38\\VCRUNTIME140.dll',
   'BINARY'),
  ('python38.dll',
   'c:\\users\\jrnm_\\appdata\\local\\programs\\python\\python38\\python38.dll',
   'BINARY'),
  ('select',
   'c:\\users\\jrnm_\\appdata\\local\\programs\\python\\python38\\DLLs\\select.pyd',
   'EXTENSION'),
  ('_overlapped',
   'c:\\users\\jrnm_\\appdata\\local\\programs\\python\\python38\\DLLs\\_overlapped.pyd',
   'EXTENSION'),
  ('_ssl',
   'c:\\users\\jrnm_\\appdata\\local\\programs\\python\\python38\\DLLs\\_ssl.pyd',
   'EXTENSION'),
  ('_asyncio',
   'c:\\users\\jrnm_\\appdata\\local\\programs\\python\\python38\\DLLs\\_asyncio.pyd',
   'EXTENSION'),
  ('_queue',
   'c:\\users\\jrnm_\\appdata\\local\\programs\\python\\python38\\DLLs\\_queue.pyd',
   'EXTENSION'),
  ('_hashlib',
   'c:\\users\\jrnm_\\appdata\\local\\programs\\python\\python38\\DLLs\\_hashlib.pyd',
   'EXTENSION'),
  ('_lzma',
   'c:\\users\\jrnm_\\appdata\\local\\programs\\python\\python38\\DLLs\\_lzma.pyd',
   'EXTENSION'),
  ('_bz2',
   'c:\\users\\jrnm_\\appdata\\local\\programs\\python\\python38\\DLLs\\_bz2.pyd',
   'EXTENSION'),
  ('pyexpat',
   'c:\\users\\jrnm_\\appdata\\local\\programs\\python\\python38\\DLLs\\pyexpat.pyd',
   'EXTENSION'),
  ('unicodedata',
   'c:\\users\\jrnm_\\appdata\\local\\programs\\python\\python38\\DLLs\\unicodedata.pyd',
   'EXTENSION'),
  ('_decimal',
   'c:\\users\\jrnm_\\appdata\\local\\programs\\python\\python38\\DLLs\\_decimal.pyd',
   'EXTENSION'),
  ('_ctypes',
   'c:\\users\\jrnm_\\appdata\\local\\programs\\python\\python38\\DLLs\\_ctypes.pyd',
   'EXTENSION'),
  ('_multiprocessing',
   'c:\\users\\jrnm_\\appdata\\local\\programs\\python\\python38\\DLLs\\_multiprocessing.pyd',
   'EXTENSION'),
  ('_socket',
   'c:\\users\\jrnm_\\appdata\\local\\programs\\python\\python38\\DLLs\\_socket.pyd',
   'EXTENSION'),
  ('_testcapi',
   'c:\\users\\jrnm_\\appdata\\local\\programs\\python\\python38\\DLLs\\_testcapi.pyd',
   'EXTENSION'),
  ('_tkinter',
   'c:\\users\\jrnm_\\appdata\\local\\programs\\python\\python38\\DLLs\\_tkinter.pyd',
   'EXTENSION'),
  ('_elementtree',
   'c:\\users\\jrnm_\\appdata\\local\\programs\\python\\python38\\DLLs\\_elementtree.pyd',
   'EXTENSION'),
  ('libssl-1_1.dll',
   'c:\\users\\jrnm_\\appdata\\local\\programs\\python\\python38\\DLLs\\libssl-1_1.dll',
   'BINARY'),
  ('libcrypto-1_1.dll',
   'c:\\users\\jrnm_\\appdata\\local\\programs\\python\\python38\\DLLs\\libcrypto-1_1.dll',
   'BINARY'),
  ('libffi-7.dll',
   'c:\\users\\jrnm_\\appdata\\local\\programs\\python\\python38\\DLLs\\libffi-7.dll',
   'BINARY'),
  ('tcl86t.dll',
   'c:\\users\\jrnm_\\appdata\\local\\programs\\python\\python38\\DLLs\\tcl86t.dll',
   'BINARY'),
  ('tk86t.dll',
   'c:\\users\\jrnm_\\appdata\\local\\programs\\python\\python38\\DLLs\\tk86t.dll',
   'BINARY'),
  ('base_library.zip',
   'C:\\Users\\jrnm_\\test\\forthon_01\\testing_n_learning\\juan_narvaez\\python\\ANAELU_02\\build\\ANAELU_run\\base_library.zip',
   'DATA'),
  ('lib2to3\\PatternGrammar.txt',
   'c:\\users\\jrnm_\\appdata\\local\\programs\\python\\python38\\lib\\lib2to3\\PatternGrammar.txt',
   'DATA'),
  ('lib2to3\\PatternGrammar3.8.1.final.0.pickle',
   'c:\\users\\jrnm_\\appdata\\local\\programs\\python\\python38\\lib\\lib2to3\\PatternGrammar3.8.1.final.0.pickle',
   'DATA'),
  ('lib2to3\\Grammar.txt',
   'c:\\users\\jrnm_\\appdata\\local\\programs\\python\\python38\\lib\\lib2to3\\Grammar.txt',
   'DATA'),
  ('lib2to3\\Grammar3.8.1.final.0.pickle',
   'c:\\users\\jrnm_\\appdata\\local\\programs\\python\\python38\\lib\\lib2to3\\Grammar3.8.1.final.0.pickle',
   'DATA'),
  ('lib2to3\\tests\\data\\README',
   'c:\\users\\jrnm_\\appdata\\local\\programs\\python\\python38\\lib\\lib2to3\\tests\\data\\README',
   'DATA'),
  ('Include\\pyconfig.h',
   'c:\\users\\jrnm_\\appdata\\local\\programs\\python\\python38\\Include\\pyconfig.h',
   'DATA'),
  ('ANAELU_run.exe.manifest',
   'C:\\Users\\jrnm_\\test\\forthon_01\\testing_n_learning\\juan_narvaez\\python\\ANAELU_02\\build\\ANAELU_run\\ANAELU_run.exe.manifest',
   'BINARY'),
  ('pyi-windows-manifest-filename ANAELU_run.exe.manifest', '', 'OPTION')],
 [],
 False,
 False,
 1587878226,
 [('run.exe',
   'c:\\users\\jrnm_\\appdata\\local\\programs\\python\\python38\\lib\\site-packages\\PyInstaller\\bootloader\\Windows-64bit\\run.exe',
   'EXECUTABLE')])
