('C:\\Users\\jrnm_\\test\\forthon_01\\testing_n_learning\\juan_narvaez\\python\\ANAELU_02\\build\\ANAELU_unins\\PKG-00.pkg',
 {'BINARY': 1,
  'DATA': 1,
  'EXECUTABLE': 1,
  'EXTENSION': 1,
  'PYMODULE': 1,
  'PYSOURCE': 1,
  'PYZ': 0},
 [('PYZ-00.pyz',
   'C:\\Users\\jrnm_\\test\\forthon_01\\testing_n_learning\\juan_narvaez\\python\\ANAELU_02\\build\\ANAELU_unins\\PYZ-00.pyz',
   'PYZ'),
  ('struct',
   'c:\\users\\jrnm_\\appdata\\local\\programs\\python\\python38\\lib\\struct.pyo',
   'PYMODULE'),
  ('pyimod01_os_path',
   'c:\\users\\jrnm_\\appdata\\local\\programs\\python\\python38\\lib\\site-packages\\PyInstaller\\loader\\pyimod01_os_path.pyc',
   'PYMODULE'),
  ('pyimod02_archive',
   'c:\\users\\jrnm_\\appdata\\local\\programs\\python\\python38\\lib\\site-packages\\PyInstaller\\loader\\pyimod02_archive.pyc',
   'PYMODULE'),
  ('pyimod03_importers',
   'c:\\users\\jrnm_\\appdata\\local\\programs\\python\\python38\\lib\\site-packages\\PyInstaller\\loader\\pyimod03_importers.pyc',
   'PYMODULE'),
  ('pyiboot01_bootstrap',
   'c:\\users\\jrnm_\\appdata\\local\\programs\\python\\python38\\lib\\site-packages\\PyInstaller\\loader\\pyiboot01_bootstrap.py',
   'PYSOURCE'),
  ('pyi_rth__tkinter',
   'C:\\Users\\jrnm_\\AppData\\Local\\Programs\\Python\\Python38\\Lib\\site-packages\\PyInstaller\\loader\\rthooks\\pyi_rth__tkinter.py',
   'PYSOURCE'),
  ('pyi_rth_multiprocessing',
   'C:\\Users\\jrnm_\\AppData\\Local\\Programs\\Python\\Python38\\Lib\\site-packages\\PyInstaller\\loader\\rthooks\\pyi_rth_multiprocessing.py',
   'PYSOURCE'),
  ('ANAELU_unins',
   'C:\\Users\\jrnm_\\test\\forthon_01\\testing_n_learning\\juan_narvaez\\python\\ANAELU_02\\ANAELU_unins.py',
   'PYSOURCE'),
  ('python38.dll',
   'c:\\users\\jrnm_\\appdata\\local\\programs\\python\\python38\\python38.dll',
   'BINARY'),
  ('VCRUNTIME140.dll',
   'c:\\users\\jrnm_\\appdata\\local\\programs\\python\\python38\\VCRUNTIME140.dll',
   'BINARY'),
  ('select',
   'c:\\users\\jrnm_\\appdata\\local\\programs\\python\\python38\\DLLs\\select.pyd',
   'EXTENSION'),
  ('_overlapped',
   'c:\\users\\jrnm_\\appdata\\local\\programs\\python\\python38\\DLLs\\_overlapped.pyd',
   'EXTENSION'),
  ('_ssl',
   'c:\\users\\jrnm_\\appdata\\local\\programs\\python\\python38\\DLLs\\_ssl.pyd',
   'EXTENSION'),
  ('_asyncio',
   'c:\\users\\jrnm_\\appdata\\local\\programs\\python\\python38\\DLLs\\_asyncio.pyd',
   'EXTENSION'),
  ('_queue',
   'c:\\users\\jrnm_\\appdata\\local\\programs\\python\\python38\\DLLs\\_queue.pyd',
   'EXTENSION'),
  ('_hashlib',
   'c:\\users\\jrnm_\\appdata\\local\\programs\\python\\python38\\DLLs\\_hashlib.pyd',
   'EXTENSION'),
  ('_lzma',
   'c:\\users\\jrnm_\\appdata\\local\\programs\\python\\python38\\DLLs\\_lzma.pyd',
   'EXTENSION'),
  ('_bz2',
   'c:\\users\\jrnm_\\appdata\\local\\programs\\python\\python38\\DLLs\\_bz2.pyd',
   'EXTENSION'),
  ('pyexpat',
   'c:\\users\\jrnm_\\appdata\\local\\programs\\python\\python38\\DLLs\\pyexpat.pyd',
   'EXTENSION'),
  ('unicodedata',
   'c:\\users\\jrnm_\\appdata\\local\\programs\\python\\python38\\DLLs\\unicodedata.pyd',
   'EXTENSION'),
  ('_decimal',
   'c:\\users\\jrnm_\\appdata\\local\\programs\\python\\python38\\DLLs\\_decimal.pyd',
   'EXTENSION'),
  ('_ctypes',
   'c:\\users\\jrnm_\\appdata\\local\\programs\\python\\python38\\DLLs\\_ctypes.pyd',
   'EXTENSION'),
  ('_multiprocessing',
   'c:\\users\\jrnm_\\appdata\\local\\programs\\python\\python38\\DLLs\\_multiprocessing.pyd',
   'EXTENSION'),
  ('_socket',
   'c:\\users\\jrnm_\\appdata\\local\\programs\\python\\python38\\DLLs\\_socket.pyd',
   'EXTENSION'),
  ('_testcapi',
   'c:\\users\\jrnm_\\appdata\\local\\programs\\python\\python38\\DLLs\\_testcapi.pyd',
   'EXTENSION'),
  ('_tkinter',
   'c:\\users\\jrnm_\\appdata\\local\\programs\\python\\python38\\DLLs\\_tkinter.pyd',
   'EXTENSION'),
  ('_elementtree',
   'c:\\users\\jrnm_\\appdata\\local\\programs\\python\\python38\\DLLs\\_elementtree.pyd',
   'EXTENSION'),
  ('libcrypto-1_1.dll',
   'c:\\users\\jrnm_\\appdata\\local\\programs\\python\\python38\\DLLs\\libcrypto-1_1.dll',
   'BINARY'),
  ('libssl-1_1.dll',
   'c:\\users\\jrnm_\\appdata\\local\\programs\\python\\python38\\DLLs\\libssl-1_1.dll',
   'BINARY'),
  ('libffi-7.dll',
   'c:\\users\\jrnm_\\appdata\\local\\programs\\python\\python38\\DLLs\\libffi-7.dll',
   'BINARY'),
  ('tk86t.dll',
   'c:\\users\\jrnm_\\appdata\\local\\programs\\python\\python38\\DLLs\\tk86t.dll',
   'BINARY'),
  ('tcl86t.dll',
   'c:\\users\\jrnm_\\appdata\\local\\programs\\python\\python38\\DLLs\\tcl86t.dll',
   'BINARY'),
  ('base_library.zip',
   'C:\\Users\\jrnm_\\test\\forthon_01\\testing_n_learning\\juan_narvaez\\python\\ANAELU_02\\build\\ANAELU_unins\\base_library.zip',
   'DATA'),
  ('Include\\pyconfig.h',
   'c:\\users\\jrnm_\\appdata\\local\\programs\\python\\python38\\Include\\pyconfig.h',
   'DATA'),
  ('lib2to3\\PatternGrammar.txt',
   'c:\\users\\jrnm_\\appdata\\local\\programs\\python\\python38\\lib\\lib2to3\\PatternGrammar.txt',
   'DATA'),
  ('lib2to3\\tests\\data\\README',
   'c:\\users\\jrnm_\\appdata\\local\\programs\\python\\python38\\lib\\lib2to3\\tests\\data\\README',
   'DATA'),
  ('lib2to3\\Grammar.txt',
   'c:\\users\\jrnm_\\appdata\\local\\programs\\python\\python38\\lib\\lib2to3\\Grammar.txt',
   'DATA'),
  ('lib2to3\\Grammar3.8.1.final.0.pickle',
   'c:\\users\\jrnm_\\appdata\\local\\programs\\python\\python38\\lib\\lib2to3\\Grammar3.8.1.final.0.pickle',
   'DATA'),
  ('lib2to3\\PatternGrammar3.8.1.final.0.pickle',
   'c:\\users\\jrnm_\\appdata\\local\\programs\\python\\python38\\lib\\lib2to3\\PatternGrammar3.8.1.final.0.pickle',
   'DATA'),
  ('ANAELU_unins.exe.manifest',
   'C:\\Users\\jrnm_\\test\\forthon_01\\testing_n_learning\\juan_narvaez\\python\\ANAELU_02\\build\\ANAELU_unins\\ANAELU_unins.exe.manifest',
   'BINARY'),
  ('pyi-windows-manifest-filename ANAELU_unins.exe.manifest', '', 'OPTION')],
 False,
 False,
 False,
 [])
