    1  pwd
    2  python
    3  ls
    4  gfortran
    5  python
    6  cd ..
    7  cd ..
    8  cd ..
    9  cd ..
   10  cd ..
   11  ls
   12  cd ..
   13  ls
   14  cd lui-dev
   15  cd ..
   16  ls
   17  cd MinGW/
   18  ls
   19  cd msys/
   20  ls
   21  cd 1.0/
   22  ls
   23  cd home/lui-dev/
   24  ls
   25  mkdir anaelu_gitlab
   26  cd anaelu_gitlab
   27  git clone https://gitlab.com/luisolafg/forthon.git
   28  ls
   29  git clone https://gitlab.com/luisolafg/anaelu.git
   30  ls
   31  git add mix_zoom_tst_05_step_10.py
   32  ls
   33  cd forthon/Testing_n_Learning/luiso_s/wx_python/exmpl_incremental/
   34  git add mix_zoom_tst_05_step_10.py
   35  git commit -am"adding a wx test that seems to work in windows with zoom and scroll"
   36  git config --global user.email "luicub@gmail.com"
   37  git config --global user.name "luisolafg"
   38  git commit -am"adding a wx test that seems to work in windows with zoom and scroll"
   39  git push
   40  git config --global user.email "robert.loxley.i7@gmail.com"
   41  git config --global user.name "rloxley"
   42  git push
   43  git config --global user.email "robert.loxley.i7@gmail.com"
   44  git config --global user.name "rob.lox"
   45  git push
   46  git pull
   47  git rebase
   48  git add connecting_from_stable_mix_01.py
   49  git commit -am"adding new start point from previous succesful mix"
   50  git pushh
   51  git push
   52  git pull --rebase
   53  pwd
   54  cd
   55  pwd
   56  cd ..
   57  cd ..
   58  cd ..
   59  cd ..
   60  cd lui-dev
   61  cd ..
   62  cd ..
   63  ls
   64  cd Users/lui-dev/
   65  cd ..
   66  cd ..
   67  cd ..
   68  cd ..
   69  ls
   70  cd
   71  pwd
   72  cd ..
   73  ls
   74  cd lui-dev
   75  cd
   76  ls
   77  cd Anaconda2/
   78  ls
   79  cd ..
   80  ls
   81  cd .
   82  cd ..
   83  ls
   84  cd ..
   85  ls
   86  cd MinGW/
   87  cd msys/1.0/home/lui-dev/anaelu_gitlab/forthon/
   88  git pull
   89  pwd
   90  python
   91  cd /c/MinGW/msys/1.0/home/lui-dev/anaelu_gitlab/forthon
   92  cd /c/MinGW/msys/1.0/home/lui-dev/anaelu_gitlab/forthon
   93  cd /c/MinGW/msys/1.0/home/lui-dev/anaelu_gitlab/forthon
   94  conda install matplotlib
   95  conda install -c anaconda numpy
   96  conda install -c anaconda wxpython
   97  conda update
   98  python
   99  env
  100  cd /c/MinGW/msys/1.0/home/lui-dev/anaelu_gitlab/forthon
  101  cd Testing_n_Learning/luiso_s/wx_python/exmpl_incremental/
  102  ls
  103  python connecting_from_stable_mix_02.py
  104  gcc
  105  conda info
  106  python
  107  conda install -c msys2 m2w64-gcc-fortran
  108  gfortran
  109  gcc
  110  gfortran
  111  conda search fortran
  112  conda install m2w64-gcc-fortran
  113  conda install m2w64-gcc-fortran
  114  conda update python
  115  ls
  116  pd
  117  pwd
  118  python
  119  history

New to test:
conda install -c anaconda mingw=4.7
conda install -c msys2 m2w64-gcc-fortran=5.3.0

to download windows free virtul mashines:

https://developer.microsoft.com/en-us/microsoft-edge/tools/vms/




