(['C:\\Users\\jrnm_\\test\\forthon_01\\testing_n_learning\\juan_narvaez\\python\\testanaelu\\src\\gui\\ANAELU_run.py'],
 ['C:\\Users\\jrnm_\\test\\forthon_01\\testing_n_learning\\juan_narvaez\\python\\testanaelu\\src\\gui',
  'C:\\Users\\jrnm_\\test\\forthon_01\\testing_n_learning\\juan_narvaez\\python\\testanaelu\\src\\gui'],
 ['codecs'],
 [],
 [],
 [],
 False,
 False,
 '3.7.6 (default, Jan  8 2020, 20:23:39) [MSC v.1916 64 bit (AMD64)]',
 [('ANAELU_run',
   'C:\\Users\\jrnm_\\test\\forthon_01\\testing_n_learning\\juan_narvaez\\python\\testanaelu\\src\\gui\\ANAELU_run.py',
   'PYSOURCE')],
 [('copy', 'c:\\users\\jrnm_\\miniconda3\\lib\\copy.py', 'PYMODULE'),
  ('typing', 'c:\\users\\jrnm_\\miniconda3\\lib\\typing.py', 'PYMODULE'),
  ('contextlib',
   'c:\\users\\jrnm_\\miniconda3\\lib\\contextlib.py',
   'PYMODULE'),
  ('_py_abc', 'c:\\users\\jrnm_\\miniconda3\\lib\\_py_abc.py', 'PYMODULE'),
  ('doctest', 'c:\\users\\jrnm_\\miniconda3\\lib\\doctest.py', 'PYMODULE'),
  ('argparse', 'c:\\users\\jrnm_\\miniconda3\\lib\\argparse.py', 'PYMODULE'),
  ('textwrap', 'c:\\users\\jrnm_\\miniconda3\\lib\\textwrap.py', 'PYMODULE'),
  ('gettext', 'c:\\users\\jrnm_\\miniconda3\\lib\\gettext.py', 'PYMODULE'),
  ('struct', 'c:\\users\\jrnm_\\miniconda3\\lib\\struct.py', 'PYMODULE'),
  ('unittest',
   'c:\\users\\jrnm_\\miniconda3\\lib\\unittest\\__init__.py',
   'PYMODULE'),
  ('ntpath', 'c:\\users\\jrnm_\\miniconda3\\lib\\ntpath.py', 'PYMODULE'),
  ('string', 'c:\\users\\jrnm_\\miniconda3\\lib\\string.py', 'PYMODULE'),
  ('genericpath',
   'c:\\users\\jrnm_\\miniconda3\\lib\\genericpath.py',
   'PYMODULE'),
  ('stat', 'c:\\users\\jrnm_\\miniconda3\\lib\\stat.py', 'PYMODULE'),
  ('unittest.signals',
   'c:\\users\\jrnm_\\miniconda3\\lib\\unittest\\signals.py',
   'PYMODULE'),
  ('signal', 'c:\\users\\jrnm_\\miniconda3\\lib\\signal.py', 'PYMODULE'),
  ('unittest.main',
   'c:\\users\\jrnm_\\miniconda3\\lib\\unittest\\main.py',
   'PYMODULE'),
  ('unittest.runner',
   'c:\\users\\jrnm_\\miniconda3\\lib\\unittest\\runner.py',
   'PYMODULE'),
  ('_strptime', 'c:\\users\\jrnm_\\miniconda3\\lib\\_strptime.py', 'PYMODULE'),
  ('datetime', 'c:\\users\\jrnm_\\miniconda3\\lib\\datetime.py', 'PYMODULE'),
  ('calendar', 'c:\\users\\jrnm_\\miniconda3\\lib\\calendar.py', 'PYMODULE'),
  ('unittest.loader',
   'c:\\users\\jrnm_\\miniconda3\\lib\\unittest\\loader.py',
   'PYMODULE'),
  ('fnmatch', 'c:\\users\\jrnm_\\miniconda3\\lib\\fnmatch.py', 'PYMODULE'),
  ('posixpath', 'c:\\users\\jrnm_\\miniconda3\\lib\\posixpath.py', 'PYMODULE'),
  ('unittest.suite',
   'c:\\users\\jrnm_\\miniconda3\\lib\\unittest\\suite.py',
   'PYMODULE'),
  ('unittest.case',
   'c:\\users\\jrnm_\\miniconda3\\lib\\unittest\\case.py',
   'PYMODULE'),
  ('pprint', 'c:\\users\\jrnm_\\miniconda3\\lib\\pprint.py', 'PYMODULE'),
  ('logging',
   'c:\\users\\jrnm_\\miniconda3\\lib\\logging\\__init__.py',
   'PYMODULE'),
  ('pickle', 'c:\\users\\jrnm_\\miniconda3\\lib\\pickle.py', 'PYMODULE'),
  ('_compat_pickle',
   'c:\\users\\jrnm_\\miniconda3\\lib\\_compat_pickle.py',
   'PYMODULE'),
  ('threading', 'c:\\users\\jrnm_\\miniconda3\\lib\\threading.py', 'PYMODULE'),
  ('_threading_local',
   'c:\\users\\jrnm_\\miniconda3\\lib\\_threading_local.py',
   'PYMODULE'),
  ('unittest.result',
   'c:\\users\\jrnm_\\miniconda3\\lib\\unittest\\result.py',
   'PYMODULE'),
  ('unittest.util',
   'c:\\users\\jrnm_\\miniconda3\\lib\\unittest\\util.py',
   'PYMODULE'),
  ('pdb', 'c:\\users\\jrnm_\\miniconda3\\lib\\pdb.py', 'PYMODULE'),
  ('getopt', 'c:\\users\\jrnm_\\miniconda3\\lib\\getopt.py', 'PYMODULE'),
  ('pydoc', 'c:\\users\\jrnm_\\miniconda3\\lib\\pydoc.py', 'PYMODULE'),
  ('webbrowser',
   'c:\\users\\jrnm_\\miniconda3\\lib\\webbrowser.py',
   'PYMODULE'),
  ('socket', 'c:\\users\\jrnm_\\miniconda3\\lib\\socket.py', 'PYMODULE'),
  ('selectors', 'c:\\users\\jrnm_\\miniconda3\\lib\\selectors.py', 'PYMODULE'),
  ('shutil', 'c:\\users\\jrnm_\\miniconda3\\lib\\shutil.py', 'PYMODULE'),
  ('zipfile', 'c:\\users\\jrnm_\\miniconda3\\lib\\zipfile.py', 'PYMODULE'),
  ('py_compile',
   'c:\\users\\jrnm_\\miniconda3\\lib\\py_compile.py',
   'PYMODULE'),
  ('tarfile', 'c:\\users\\jrnm_\\miniconda3\\lib\\tarfile.py', 'PYMODULE'),
  ('gzip', 'c:\\users\\jrnm_\\miniconda3\\lib\\gzip.py', 'PYMODULE'),
  ('_compression',
   'c:\\users\\jrnm_\\miniconda3\\lib\\_compression.py',
   'PYMODULE'),
  ('lzma', 'c:\\users\\jrnm_\\miniconda3\\lib\\lzma.py', 'PYMODULE'),
  ('bz2', 'c:\\users\\jrnm_\\miniconda3\\lib\\bz2.py', 'PYMODULE'),
  ('email.message',
   'c:\\users\\jrnm_\\miniconda3\\lib\\email\\message.py',
   'PYMODULE'),
  ('email.policy',
   'c:\\users\\jrnm_\\miniconda3\\lib\\email\\policy.py',
   'PYMODULE'),
  ('email.contentmanager',
   'c:\\users\\jrnm_\\miniconda3\\lib\\email\\contentmanager.py',
   'PYMODULE'),
  ('email.quoprimime',
   'c:\\users\\jrnm_\\miniconda3\\lib\\email\\quoprimime.py',
   'PYMODULE'),
  ('email.headerregistry',
   'c:\\users\\jrnm_\\miniconda3\\lib\\email\\headerregistry.py',
   'PYMODULE'),
  ('email._header_value_parser',
   'c:\\users\\jrnm_\\miniconda3\\lib\\email\\_header_value_parser.py',
   'PYMODULE'),
  ('urllib',
   'c:\\users\\jrnm_\\miniconda3\\lib\\urllib\\__init__.py',
   'PYMODULE'),
  ('email.iterators',
   'c:\\users\\jrnm_\\miniconda3\\lib\\email\\iterators.py',
   'PYMODULE'),
  ('email.generator',
   'c:\\users\\jrnm_\\miniconda3\\lib\\email\\generator.py',
   'PYMODULE'),
  ('random', 'c:\\users\\jrnm_\\miniconda3\\lib\\random.py', 'PYMODULE'),
  ('bisect', 'c:\\users\\jrnm_\\miniconda3\\lib\\bisect.py', 'PYMODULE'),
  ('hashlib', 'c:\\users\\jrnm_\\miniconda3\\lib\\hashlib.py', 'PYMODULE'),
  ('email._encoded_words',
   'c:\\users\\jrnm_\\miniconda3\\lib\\email\\_encoded_words.py',
   'PYMODULE'),
  ('base64', 'c:\\users\\jrnm_\\miniconda3\\lib\\base64.py', 'PYMODULE'),
  ('email.charset',
   'c:\\users\\jrnm_\\miniconda3\\lib\\email\\charset.py',
   'PYMODULE'),
  ('email.encoders',
   'c:\\users\\jrnm_\\miniconda3\\lib\\email\\encoders.py',
   'PYMODULE'),
  ('email.base64mime',
   'c:\\users\\jrnm_\\miniconda3\\lib\\email\\base64mime.py',
   'PYMODULE'),
  ('email._policybase',
   'c:\\users\\jrnm_\\miniconda3\\lib\\email\\_policybase.py',
   'PYMODULE'),
  ('email.header',
   'c:\\users\\jrnm_\\miniconda3\\lib\\email\\header.py',
   'PYMODULE'),
  ('email.errors',
   'c:\\users\\jrnm_\\miniconda3\\lib\\email\\errors.py',
   'PYMODULE'),
  ('email.utils',
   'c:\\users\\jrnm_\\miniconda3\\lib\\email\\utils.py',
   'PYMODULE'),
  ('email._parseaddr',
   'c:\\users\\jrnm_\\miniconda3\\lib\\email\\_parseaddr.py',
   'PYMODULE'),
  ('email',
   'c:\\users\\jrnm_\\miniconda3\\lib\\email\\__init__.py',
   'PYMODULE'),
  ('email.parser',
   'c:\\users\\jrnm_\\miniconda3\\lib\\email\\parser.py',
   'PYMODULE'),
  ('email.feedparser',
   'c:\\users\\jrnm_\\miniconda3\\lib\\email\\feedparser.py',
   'PYMODULE'),
  ('quopri', 'c:\\users\\jrnm_\\miniconda3\\lib\\quopri.py', 'PYMODULE'),
  ('uu', 'c:\\users\\jrnm_\\miniconda3\\lib\\uu.py', 'PYMODULE'),
  ('optparse', 'c:\\users\\jrnm_\\miniconda3\\lib\\optparse.py', 'PYMODULE'),
  ('http.server',
   'c:\\users\\jrnm_\\miniconda3\\lib\\http\\server.py',
   'PYMODULE'),
  ('http', 'c:\\users\\jrnm_\\miniconda3\\lib\\http\\__init__.py', 'PYMODULE'),
  ('socketserver',
   'c:\\users\\jrnm_\\miniconda3\\lib\\socketserver.py',
   'PYMODULE'),
  ('mimetypes', 'c:\\users\\jrnm_\\miniconda3\\lib\\mimetypes.py', 'PYMODULE'),
  ('http.client',
   'c:\\users\\jrnm_\\miniconda3\\lib\\http\\client.py',
   'PYMODULE'),
  ('ssl', 'c:\\users\\jrnm_\\miniconda3\\lib\\ssl.py', 'PYMODULE'),
  ('html', 'c:\\users\\jrnm_\\miniconda3\\lib\\html\\__init__.py', 'PYMODULE'),
  ('html.entities',
   'c:\\users\\jrnm_\\miniconda3\\lib\\html\\entities.py',
   'PYMODULE'),
  ('pydoc_data.topics',
   'c:\\users\\jrnm_\\miniconda3\\lib\\pydoc_data\\topics.py',
   'PYMODULE'),
  ('pydoc_data',
   'c:\\users\\jrnm_\\miniconda3\\lib\\pydoc_data\\__init__.py',
   'PYMODULE'),
  ('tty', 'c:\\users\\jrnm_\\miniconda3\\lib\\tty.py', 'PYMODULE'),
  ('subprocess',
   'c:\\users\\jrnm_\\miniconda3\\lib\\subprocess.py',
   'PYMODULE'),
  ('tempfile', 'c:\\users\\jrnm_\\miniconda3\\lib\\tempfile.py', 'PYMODULE'),
  ('urllib.parse',
   'c:\\users\\jrnm_\\miniconda3\\lib\\urllib\\parse.py',
   'PYMODULE'),
  ('tokenize', 'c:\\users\\jrnm_\\miniconda3\\lib\\tokenize.py', 'PYMODULE'),
  ('token', 'c:\\users\\jrnm_\\miniconda3\\lib\\token.py', 'PYMODULE'),
  ('platform', 'c:\\users\\jrnm_\\miniconda3\\lib\\platform.py', 'PYMODULE'),
  ('plistlib', 'c:\\users\\jrnm_\\miniconda3\\lib\\plistlib.py', 'PYMODULE'),
  ('xml.parsers.expat',
   'c:\\users\\jrnm_\\miniconda3\\lib\\xml\\parsers\\expat.py',
   'PYMODULE'),
  ('xml.parsers',
   'c:\\users\\jrnm_\\miniconda3\\lib\\xml\\parsers\\__init__.py',
   'PYMODULE'),
  ('xml', 'c:\\users\\jrnm_\\miniconda3\\lib\\xml\\__init__.py', 'PYMODULE'),
  ('xml.sax.expatreader',
   'c:\\users\\jrnm_\\miniconda3\\lib\\xml\\sax\\expatreader.py',
   'PYMODULE'),
  ('xml.sax.saxutils',
   'c:\\users\\jrnm_\\miniconda3\\lib\\xml\\sax\\saxutils.py',
   'PYMODULE'),
  ('urllib.request',
   'c:\\users\\jrnm_\\miniconda3\\lib\\urllib\\request.py',
   'PYMODULE'),
  ('getpass', 'c:\\users\\jrnm_\\miniconda3\\lib\\getpass.py', 'PYMODULE'),
  ('nturl2path',
   'c:\\users\\jrnm_\\miniconda3\\lib\\nturl2path.py',
   'PYMODULE'),
  ('ftplib', 'c:\\users\\jrnm_\\miniconda3\\lib\\ftplib.py', 'PYMODULE'),
  ('netrc', 'c:\\users\\jrnm_\\miniconda3\\lib\\netrc.py', 'PYMODULE'),
  ('http.cookiejar',
   'c:\\users\\jrnm_\\miniconda3\\lib\\http\\cookiejar.py',
   'PYMODULE'),
  ('urllib.response',
   'c:\\users\\jrnm_\\miniconda3\\lib\\urllib\\response.py',
   'PYMODULE'),
  ('urllib.error',
   'c:\\users\\jrnm_\\miniconda3\\lib\\urllib\\error.py',
   'PYMODULE'),
  ('xml.sax',
   'c:\\users\\jrnm_\\miniconda3\\lib\\xml\\sax\\__init__.py',
   'PYMODULE'),
  ('xml.sax.handler',
   'c:\\users\\jrnm_\\miniconda3\\lib\\xml\\sax\\handler.py',
   'PYMODULE'),
  ('xml.sax._exceptions',
   'c:\\users\\jrnm_\\miniconda3\\lib\\xml\\sax\\_exceptions.py',
   'PYMODULE'),
  ('xml.sax.xmlreader',
   'c:\\users\\jrnm_\\miniconda3\\lib\\xml\\sax\\xmlreader.py',
   'PYMODULE'),
  ('pkgutil', 'c:\\users\\jrnm_\\miniconda3\\lib\\pkgutil.py', 'PYMODULE'),
  ('importlib',
   'c:\\users\\jrnm_\\miniconda3\\lib\\importlib\\__init__.py',
   'PYMODULE'),
  ('importlib.abc',
   'c:\\users\\jrnm_\\miniconda3\\lib\\importlib\\abc.py',
   'PYMODULE'),
  ('importlib.util',
   'c:\\users\\jrnm_\\miniconda3\\lib\\importlib\\util.py',
   'PYMODULE'),
  ('importlib.machinery',
   'c:\\users\\jrnm_\\miniconda3\\lib\\importlib\\machinery.py',
   'PYMODULE'),
  ('importlib._bootstrap_external',
   'c:\\users\\jrnm_\\miniconda3\\lib\\importlib\\_bootstrap_external.py',
   'PYMODULE'),
  ('importlib._bootstrap',
   'c:\\users\\jrnm_\\miniconda3\\lib\\importlib\\_bootstrap.py',
   'PYMODULE'),
  ('runpy', 'c:\\users\\jrnm_\\miniconda3\\lib\\runpy.py', 'PYMODULE'),
  ('shlex', 'c:\\users\\jrnm_\\miniconda3\\lib\\shlex.py', 'PYMODULE'),
  ('glob', 'c:\\users\\jrnm_\\miniconda3\\lib\\glob.py', 'PYMODULE'),
  ('code', 'c:\\users\\jrnm_\\miniconda3\\lib\\code.py', 'PYMODULE'),
  ('codeop', 'c:\\users\\jrnm_\\miniconda3\\lib\\codeop.py', 'PYMODULE'),
  ('dis', 'c:\\users\\jrnm_\\miniconda3\\lib\\dis.py', 'PYMODULE'),
  ('opcode', 'c:\\users\\jrnm_\\miniconda3\\lib\\opcode.py', 'PYMODULE'),
  ('bdb', 'c:\\users\\jrnm_\\miniconda3\\lib\\bdb.py', 'PYMODULE'),
  ('cmd', 'c:\\users\\jrnm_\\miniconda3\\lib\\cmd.py', 'PYMODULE'),
  ('inspect', 'c:\\users\\jrnm_\\miniconda3\\lib\\inspect.py', 'PYMODULE'),
  ('ast', 'c:\\users\\jrnm_\\miniconda3\\lib\\ast.py', 'PYMODULE'),
  ('difflib', 'c:\\users\\jrnm_\\miniconda3\\lib\\difflib.py', 'PYMODULE'),
  ('__future__',
   'c:\\users\\jrnm_\\miniconda3\\lib\\__future__.py',
   'PYMODULE'),
  ('stringprep',
   'c:\\users\\jrnm_\\miniconda3\\lib\\stringprep.py',
   'PYMODULE'),
  ('tracemalloc',
   'c:\\users\\jrnm_\\miniconda3\\lib\\tracemalloc.py',
   'PYMODULE'),
  ('os', 'c:\\users\\jrnm_\\miniconda3\\lib\\os.py', 'PYMODULE')],
 [('api-ms-win-crt-heap-l1-1-0.dll',
   'c:\\users\\jrnm_\\miniconda3\\api-ms-win-crt-heap-l1-1-0.dll',
   'BINARY'),
  ('python37.dll', 'c:\\users\\jrnm_\\miniconda3\\python37.dll', 'BINARY'),
  ('api-ms-win-crt-locale-l1-1-0.dll',
   'c:\\users\\jrnm_\\miniconda3\\api-ms-win-crt-locale-l1-1-0.dll',
   'BINARY'),
  ('api-ms-win-crt-math-l1-1-0.dll',
   'c:\\users\\jrnm_\\miniconda3\\api-ms-win-crt-math-l1-1-0.dll',
   'BINARY'),
  ('api-ms-win-crt-stdio-l1-1-0.dll',
   'c:\\users\\jrnm_\\miniconda3\\api-ms-win-crt-stdio-l1-1-0.dll',
   'BINARY'),
  ('api-ms-win-crt-runtime-l1-1-0.dll',
   'c:\\users\\jrnm_\\miniconda3\\api-ms-win-crt-runtime-l1-1-0.dll',
   'BINARY'),
  ('VCRUNTIME140.dll',
   'c:\\users\\jrnm_\\miniconda3\\VCRUNTIME140.dll',
   'BINARY'),
  ('ucrtbase.dll', 'c:\\users\\jrnm_\\miniconda3\\ucrtbase.dll', 'BINARY'),
  ('api-ms-win-crt-process-l1-1-0.dll',
   'c:\\users\\jrnm_\\miniconda3\\api-ms-win-crt-process-l1-1-0.dll',
   'BINARY'),
  ('api-ms-win-crt-filesystem-l1-1-0.dll',
   'c:\\users\\jrnm_\\miniconda3\\api-ms-win-crt-filesystem-l1-1-0.dll',
   'BINARY'),
  ('api-ms-win-crt-time-l1-1-0.dll',
   'c:\\users\\jrnm_\\miniconda3\\api-ms-win-crt-time-l1-1-0.dll',
   'BINARY'),
  ('api-ms-win-crt-string-l1-1-0.dll',
   'c:\\users\\jrnm_\\miniconda3\\api-ms-win-crt-string-l1-1-0.dll',
   'BINARY'),
  ('api-ms-win-crt-environment-l1-1-0.dll',
   'c:\\users\\jrnm_\\miniconda3\\api-ms-win-crt-environment-l1-1-0.dll',
   'BINARY'),
  ('api-ms-win-crt-conio-l1-1-0.dll',
   'c:\\users\\jrnm_\\miniconda3\\api-ms-win-crt-conio-l1-1-0.dll',
   'BINARY'),
  ('api-ms-win-crt-convert-l1-1-0.dll',
   'c:\\users\\jrnm_\\miniconda3\\api-ms-win-crt-convert-l1-1-0.dll',
   'BINARY'),
  ('api-ms-win-core-processthreads-l1-1-1.dll',
   'c:\\users\\jrnm_\\miniconda3\\api-ms-win-core-processthreads-l1-1-1.dll',
   'BINARY'),
  ('api-ms-win-core-debug-l1-1-0.dll',
   'c:\\users\\jrnm_\\miniconda3\\api-ms-win-core-debug-l1-1-0.dll',
   'BINARY'),
  ('api-ms-win-core-string-l1-1-0.dll',
   'c:\\users\\jrnm_\\miniconda3\\api-ms-win-core-string-l1-1-0.dll',
   'BINARY'),
  ('api-ms-win-core-namedpipe-l1-1-0.dll',
   'c:\\users\\jrnm_\\miniconda3\\api-ms-win-core-namedpipe-l1-1-0.dll',
   'BINARY'),
  ('api-ms-win-core-util-l1-1-0.dll',
   'c:\\users\\jrnm_\\miniconda3\\api-ms-win-core-util-l1-1-0.dll',
   'BINARY'),
  ('api-ms-win-core-localization-l1-2-0.dll',
   'c:\\users\\jrnm_\\miniconda3\\api-ms-win-core-localization-l1-2-0.dll',
   'BINARY'),
  ('api-ms-win-core-file-l1-1-0.dll',
   'c:\\users\\jrnm_\\miniconda3\\api-ms-win-core-file-l1-1-0.dll',
   'BINARY'),
  ('api-ms-win-core-processthreads-l1-1-0.dll',
   'c:\\users\\jrnm_\\miniconda3\\api-ms-win-core-processthreads-l1-1-0.dll',
   'BINARY'),
  ('api-ms-win-core-memory-l1-1-0.dll',
   'c:\\users\\jrnm_\\miniconda3\\api-ms-win-core-memory-l1-1-0.dll',
   'BINARY'),
  ('api-ms-win-core-sysinfo-l1-1-0.dll',
   'c:\\users\\jrnm_\\miniconda3\\api-ms-win-core-sysinfo-l1-1-0.dll',
   'BINARY'),
  ('api-ms-win-core-profile-l1-1-0.dll',
   'c:\\users\\jrnm_\\miniconda3\\api-ms-win-core-profile-l1-1-0.dll',
   'BINARY'),
  ('api-ms-win-core-synch-l1-2-0.dll',
   'c:\\users\\jrnm_\\miniconda3\\api-ms-win-core-synch-l1-2-0.dll',
   'BINARY'),
  ('api-ms-win-core-file-l1-2-0.dll',
   'c:\\users\\jrnm_\\miniconda3\\api-ms-win-core-file-l1-2-0.dll',
   'BINARY'),
  ('api-ms-win-core-errorhandling-l1-1-0.dll',
   'c:\\users\\jrnm_\\miniconda3\\api-ms-win-core-errorhandling-l1-1-0.dll',
   'BINARY'),
  ('api-ms-win-core-synch-l1-1-0.dll',
   'c:\\users\\jrnm_\\miniconda3\\api-ms-win-core-synch-l1-1-0.dll',
   'BINARY'),
  ('api-ms-win-core-processenvironment-l1-1-0.dll',
   'c:\\users\\jrnm_\\miniconda3\\api-ms-win-core-processenvironment-l1-1-0.dll',
   'BINARY'),
  ('api-ms-win-core-handle-l1-1-0.dll',
   'c:\\users\\jrnm_\\miniconda3\\api-ms-win-core-handle-l1-1-0.dll',
   'BINARY'),
  ('api-ms-win-core-rtlsupport-l1-1-0.dll',
   'c:\\users\\jrnm_\\miniconda3\\api-ms-win-core-rtlsupport-l1-1-0.dll',
   'BINARY'),
  ('api-ms-win-core-console-l1-1-0.dll',
   'c:\\users\\jrnm_\\miniconda3\\api-ms-win-core-console-l1-1-0.dll',
   'BINARY'),
  ('api-ms-win-core-timezone-l1-1-0.dll',
   'c:\\users\\jrnm_\\miniconda3\\api-ms-win-core-timezone-l1-1-0.dll',
   'BINARY'),
  ('api-ms-win-core-datetime-l1-1-0.dll',
   'c:\\users\\jrnm_\\miniconda3\\api-ms-win-core-datetime-l1-1-0.dll',
   'BINARY'),
  ('api-ms-win-core-libraryloader-l1-1-0.dll',
   'c:\\users\\jrnm_\\miniconda3\\api-ms-win-core-libraryloader-l1-1-0.dll',
   'BINARY'),
  ('api-ms-win-core-heap-l1-1-0.dll',
   'c:\\users\\jrnm_\\miniconda3\\api-ms-win-core-heap-l1-1-0.dll',
   'BINARY'),
  ('api-ms-win-core-interlocked-l1-1-0.dll',
   'c:\\users\\jrnm_\\miniconda3\\api-ms-win-core-interlocked-l1-1-0.dll',
   'BINARY'),
  ('api-ms-win-core-file-l2-1-0.dll',
   'c:\\users\\jrnm_\\miniconda3\\api-ms-win-core-file-l2-1-0.dll',
   'BINARY'),
  ('_socket', 'c:\\users\\jrnm_\\miniconda3\\DLLs\\_socket.pyd', 'EXTENSION'),
  ('_lzma', 'c:\\users\\jrnm_\\miniconda3\\DLLs\\_lzma.pyd', 'EXTENSION'),
  ('_bz2', 'c:\\users\\jrnm_\\miniconda3\\DLLs\\_bz2.pyd', 'EXTENSION'),
  ('select', 'c:\\users\\jrnm_\\miniconda3\\DLLs\\select.pyd', 'EXTENSION'),
  ('_hashlib', 'c:\\users\\jrnm_\\miniconda3\\DLLs\\_hashlib.pyd', 'EXTENSION'),
  ('_ssl', 'c:\\users\\jrnm_\\miniconda3\\DLLs\\_ssl.pyd', 'EXTENSION'),
  ('unicodedata',
   'c:\\users\\jrnm_\\miniconda3\\DLLs\\unicodedata.pyd',
   'EXTENSION'),
  ('pyexpat', 'c:\\users\\jrnm_\\miniconda3\\DLLs\\pyexpat.pyd', 'EXTENSION'),
  ('libcrypto-1_1-x64.dll',
   'C:\\Users\\jrnm_\\miniconda3\\Library\\bin\\libcrypto-1_1-x64.dll',
   'BINARY'),
  ('libssl-1_1-x64.dll',
   'C:\\Users\\jrnm_\\miniconda3\\Library\\bin\\libssl-1_1-x64.dll',
   'BINARY'),
  ('api-ms-win-crt-utility-l1-1-0.dll',
   'c:\\users\\jrnm_\\miniconda3\\api-ms-win-crt-utility-l1-1-0.dll',
   'BINARY')],
 [],
 [],
 [('base_library.zip',
   'C:\\Users\\jrnm_\\test\\forthon_01\\testing_n_learning\\juan_narvaez\\python\\testanaelu\\src\\gui\\build\\ANAELU_run\\base_library.zip',
   'DATA')],
 [])
