('C:\\Users\\jrnm_\\test\\forthon_01\\testing_n_learning\\juan_narvaez\\python\\testanaelu\\src\\gui\\build\\ANAELU_run\\PKG-00.pkg',
 {'BINARY': 1,
  'DATA': 1,
  'EXECUTABLE': 1,
  'EXTENSION': 1,
  'PYMODULE': 1,
  'PYSOURCE': 1,
  'PYZ': 0},
 [('PYZ-00.pyz',
   'C:\\Users\\jrnm_\\test\\forthon_01\\testing_n_learning\\juan_narvaez\\python\\testanaelu\\src\\gui\\build\\ANAELU_run\\PYZ-00.pyz',
   'PYZ'),
  ('struct', 'c:\\users\\jrnm_\\miniconda3\\lib\\struct.pyo', 'PYMODULE'),
  ('pyimod01_os_path',
   'c:\\users\\jrnm_\\miniconda3\\lib\\site-packages\\PyInstaller\\loader\\pyimod01_os_path.pyc',
   'PYMODULE'),
  ('pyimod02_archive',
   'c:\\users\\jrnm_\\miniconda3\\lib\\site-packages\\PyInstaller\\loader\\pyimod02_archive.pyc',
   'PYMODULE'),
  ('pyimod03_importers',
   'c:\\users\\jrnm_\\miniconda3\\lib\\site-packages\\PyInstaller\\loader\\pyimod03_importers.pyc',
   'PYMODULE'),
  ('pyiboot01_bootstrap',
   'c:\\users\\jrnm_\\miniconda3\\lib\\site-packages\\PyInstaller\\loader\\pyiboot01_bootstrap.py',
   'PYSOURCE'),
  ('ANAELU_run',
   'C:\\Users\\jrnm_\\test\\forthon_01\\testing_n_learning\\juan_narvaez\\python\\testanaelu\\src\\gui\\ANAELU_run.py',
   'PYSOURCE'),
  ('api-ms-win-crt-heap-l1-1-0.dll',
   'c:\\users\\jrnm_\\miniconda3\\api-ms-win-crt-heap-l1-1-0.dll',
   'BINARY'),
  ('python37.dll', 'c:\\users\\jrnm_\\miniconda3\\python37.dll', 'BINARY'),
  ('api-ms-win-crt-locale-l1-1-0.dll',
   'c:\\users\\jrnm_\\miniconda3\\api-ms-win-crt-locale-l1-1-0.dll',
   'BINARY'),
  ('api-ms-win-crt-math-l1-1-0.dll',
   'c:\\users\\jrnm_\\miniconda3\\api-ms-win-crt-math-l1-1-0.dll',
   'BINARY'),
  ('api-ms-win-crt-stdio-l1-1-0.dll',
   'c:\\users\\jrnm_\\miniconda3\\api-ms-win-crt-stdio-l1-1-0.dll',
   'BINARY'),
  ('api-ms-win-crt-runtime-l1-1-0.dll',
   'c:\\users\\jrnm_\\miniconda3\\api-ms-win-crt-runtime-l1-1-0.dll',
   'BINARY'),
  ('VCRUNTIME140.dll',
   'c:\\users\\jrnm_\\miniconda3\\VCRUNTIME140.dll',
   'BINARY'),
  ('ucrtbase.dll', 'c:\\users\\jrnm_\\miniconda3\\ucrtbase.dll', 'BINARY'),
  ('api-ms-win-crt-process-l1-1-0.dll',
   'c:\\users\\jrnm_\\miniconda3\\api-ms-win-crt-process-l1-1-0.dll',
   'BINARY'),
  ('api-ms-win-crt-filesystem-l1-1-0.dll',
   'c:\\users\\jrnm_\\miniconda3\\api-ms-win-crt-filesystem-l1-1-0.dll',
   'BINARY'),
  ('api-ms-win-crt-time-l1-1-0.dll',
   'c:\\users\\jrnm_\\miniconda3\\api-ms-win-crt-time-l1-1-0.dll',
   'BINARY'),
  ('api-ms-win-crt-string-l1-1-0.dll',
   'c:\\users\\jrnm_\\miniconda3\\api-ms-win-crt-string-l1-1-0.dll',
   'BINARY'),
  ('api-ms-win-crt-environment-l1-1-0.dll',
   'c:\\users\\jrnm_\\miniconda3\\api-ms-win-crt-environment-l1-1-0.dll',
   'BINARY'),
  ('api-ms-win-crt-conio-l1-1-0.dll',
   'c:\\users\\jrnm_\\miniconda3\\api-ms-win-crt-conio-l1-1-0.dll',
   'BINARY'),
  ('api-ms-win-crt-convert-l1-1-0.dll',
   'c:\\users\\jrnm_\\miniconda3\\api-ms-win-crt-convert-l1-1-0.dll',
   'BINARY'),
  ('api-ms-win-core-processthreads-l1-1-1.dll',
   'c:\\users\\jrnm_\\miniconda3\\api-ms-win-core-processthreads-l1-1-1.dll',
   'BINARY'),
  ('api-ms-win-core-debug-l1-1-0.dll',
   'c:\\users\\jrnm_\\miniconda3\\api-ms-win-core-debug-l1-1-0.dll',
   'BINARY'),
  ('api-ms-win-core-string-l1-1-0.dll',
   'c:\\users\\jrnm_\\miniconda3\\api-ms-win-core-string-l1-1-0.dll',
   'BINARY'),
  ('api-ms-win-core-namedpipe-l1-1-0.dll',
   'c:\\users\\jrnm_\\miniconda3\\api-ms-win-core-namedpipe-l1-1-0.dll',
   'BINARY'),
  ('api-ms-win-core-util-l1-1-0.dll',
   'c:\\users\\jrnm_\\miniconda3\\api-ms-win-core-util-l1-1-0.dll',
   'BINARY'),
  ('api-ms-win-core-localization-l1-2-0.dll',
   'c:\\users\\jrnm_\\miniconda3\\api-ms-win-core-localization-l1-2-0.dll',
   'BINARY'),
  ('api-ms-win-core-file-l1-1-0.dll',
   'c:\\users\\jrnm_\\miniconda3\\api-ms-win-core-file-l1-1-0.dll',
   'BINARY'),
  ('api-ms-win-core-processthreads-l1-1-0.dll',
   'c:\\users\\jrnm_\\miniconda3\\api-ms-win-core-processthreads-l1-1-0.dll',
   'BINARY'),
  ('api-ms-win-core-memory-l1-1-0.dll',
   'c:\\users\\jrnm_\\miniconda3\\api-ms-win-core-memory-l1-1-0.dll',
   'BINARY'),
  ('api-ms-win-core-sysinfo-l1-1-0.dll',
   'c:\\users\\jrnm_\\miniconda3\\api-ms-win-core-sysinfo-l1-1-0.dll',
   'BINARY'),
  ('api-ms-win-core-profile-l1-1-0.dll',
   'c:\\users\\jrnm_\\miniconda3\\api-ms-win-core-profile-l1-1-0.dll',
   'BINARY'),
  ('api-ms-win-core-synch-l1-2-0.dll',
   'c:\\users\\jrnm_\\miniconda3\\api-ms-win-core-synch-l1-2-0.dll',
   'BINARY'),
  ('api-ms-win-core-file-l1-2-0.dll',
   'c:\\users\\jrnm_\\miniconda3\\api-ms-win-core-file-l1-2-0.dll',
   'BINARY'),
  ('api-ms-win-core-errorhandling-l1-1-0.dll',
   'c:\\users\\jrnm_\\miniconda3\\api-ms-win-core-errorhandling-l1-1-0.dll',
   'BINARY'),
  ('api-ms-win-core-synch-l1-1-0.dll',
   'c:\\users\\jrnm_\\miniconda3\\api-ms-win-core-synch-l1-1-0.dll',
   'BINARY'),
  ('api-ms-win-core-processenvironment-l1-1-0.dll',
   'c:\\users\\jrnm_\\miniconda3\\api-ms-win-core-processenvironment-l1-1-0.dll',
   'BINARY'),
  ('api-ms-win-core-handle-l1-1-0.dll',
   'c:\\users\\jrnm_\\miniconda3\\api-ms-win-core-handle-l1-1-0.dll',
   'BINARY'),
  ('api-ms-win-core-rtlsupport-l1-1-0.dll',
   'c:\\users\\jrnm_\\miniconda3\\api-ms-win-core-rtlsupport-l1-1-0.dll',
   'BINARY'),
  ('api-ms-win-core-console-l1-1-0.dll',
   'c:\\users\\jrnm_\\miniconda3\\api-ms-win-core-console-l1-1-0.dll',
   'BINARY'),
  ('api-ms-win-core-timezone-l1-1-0.dll',
   'c:\\users\\jrnm_\\miniconda3\\api-ms-win-core-timezone-l1-1-0.dll',
   'BINARY'),
  ('api-ms-win-core-datetime-l1-1-0.dll',
   'c:\\users\\jrnm_\\miniconda3\\api-ms-win-core-datetime-l1-1-0.dll',
   'BINARY'),
  ('api-ms-win-core-libraryloader-l1-1-0.dll',
   'c:\\users\\jrnm_\\miniconda3\\api-ms-win-core-libraryloader-l1-1-0.dll',
   'BINARY'),
  ('api-ms-win-core-heap-l1-1-0.dll',
   'c:\\users\\jrnm_\\miniconda3\\api-ms-win-core-heap-l1-1-0.dll',
   'BINARY'),
  ('api-ms-win-core-interlocked-l1-1-0.dll',
   'c:\\users\\jrnm_\\miniconda3\\api-ms-win-core-interlocked-l1-1-0.dll',
   'BINARY'),
  ('api-ms-win-core-file-l2-1-0.dll',
   'c:\\users\\jrnm_\\miniconda3\\api-ms-win-core-file-l2-1-0.dll',
   'BINARY'),
  ('_socket', 'c:\\users\\jrnm_\\miniconda3\\DLLs\\_socket.pyd', 'EXTENSION'),
  ('_lzma', 'c:\\users\\jrnm_\\miniconda3\\DLLs\\_lzma.pyd', 'EXTENSION'),
  ('_bz2', 'c:\\users\\jrnm_\\miniconda3\\DLLs\\_bz2.pyd', 'EXTENSION'),
  ('select', 'c:\\users\\jrnm_\\miniconda3\\DLLs\\select.pyd', 'EXTENSION'),
  ('_hashlib', 'c:\\users\\jrnm_\\miniconda3\\DLLs\\_hashlib.pyd', 'EXTENSION'),
  ('_ssl', 'c:\\users\\jrnm_\\miniconda3\\DLLs\\_ssl.pyd', 'EXTENSION'),
  ('unicodedata',
   'c:\\users\\jrnm_\\miniconda3\\DLLs\\unicodedata.pyd',
   'EXTENSION'),
  ('pyexpat', 'c:\\users\\jrnm_\\miniconda3\\DLLs\\pyexpat.pyd', 'EXTENSION'),
  ('libcrypto-1_1-x64.dll',
   'C:\\Users\\jrnm_\\miniconda3\\Library\\bin\\libcrypto-1_1-x64.dll',
   'BINARY'),
  ('libssl-1_1-x64.dll',
   'C:\\Users\\jrnm_\\miniconda3\\Library\\bin\\libssl-1_1-x64.dll',
   'BINARY'),
  ('api-ms-win-crt-utility-l1-1-0.dll',
   'c:\\users\\jrnm_\\miniconda3\\api-ms-win-crt-utility-l1-1-0.dll',
   'BINARY'),
  ('base_library.zip',
   'C:\\Users\\jrnm_\\test\\forthon_01\\testing_n_learning\\juan_narvaez\\python\\testanaelu\\src\\gui\\build\\ANAELU_run\\base_library.zip',
   'DATA'),
  ('ANAELU_run.exe.manifest',
   'C:\\Users\\jrnm_\\test\\forthon_01\\testing_n_learning\\juan_narvaez\\python\\testanaelu\\src\\gui\\build\\ANAELU_run\\ANAELU_run.exe.manifest',
   'BINARY'),
  ('pyi-windows-manifest-filename ANAELU_run.exe.manifest', '', 'OPTION')],
 False,
 False,
 False,
 [])
